{"records": [{
    "jsonSchemaLocation": "/bwsampleapp/Service Descriptors/bwsampleapp.Process-Resource.json",
    "conversionType": "linked",
    "xsdSchemaTargetNamespace": "http://www.example.com/namespaces/tns/1512558390569"
}]}